 Wd pai   fai   zH  zHmax   zHstd zd z0
  0 0.436 0.284 16.558 27.059 7.285 23.293 1.069
  1 0.400 0.289 17.210 27.059 7.826 23.539 1.328
  2 0.356 0.311 16.818 27.941 7.904 22.472 1.626
  3 0.351 0.318 15.479 27.941 7.582 21.092 1.600
  4 0.390 0.239 13.532 27.941 6.580 19.444 0.978
  5 0.410 0.350 13.748 27.941 6.443 19.847 1.234
  6 0.417 0.326 14.457 27.059 6.849 20.831 1.213
  7 0.383 0.276 13.682 27.059 7.688 20.278 1.339
  8 0.212 0.214 16.761 27.059 7.861 18.548 1.838
  9 0.187 0.222 16.875 27.059 7.181 17.423 1.997
 10 0.203 0.208 16.952 27.059 6.660 17.667 1.773
 11 0.429 0.255 15.036 27.059 5.785 20.621 0.797
 12 0.352 0.251 16.807 27.059 6.377 21.101 1.184
 13 0.471 0.348 16.705 27.059 5.875 22.848 0.903
 14 0.471 0.407 16.028 27.059 6.785 23.050 1.178
 15 0.528 0.449 15.599 27.059 6.949 23.751 1.049
 16 0.572 0.493 14.683 27.059 7.347 23.938 1.030
 17 0.586 0.411 16.405 27.059 7.129 25.567 0.747
 18 0.496 0.485 16.819 27.059 6.548 23.961 1.175
 19 0.470 0.536 16.637 27.059 6.225 23.076 1.330
 20 0.438 0.453 16.908 27.059 5.932 22.494 1.281
 21 0.387 0.447 16.423 27.059 6.647 21.724 1.647
 22 0.458 0.419 15.719 27.059 6.781 22.556 1.265
 23 0.490 0.395 15.540 27.059 6.598 22.775 1.039
 24 0.432 0.388 15.310 27.059 6.770 21.746 1.304
 25 0.456 0.493 16.182 27.059 6.654 22.811 1.406
 26 0.487 0.516 15.297 27.059 6.323 22.264 1.235
 27 0.442 0.402 15.371 27.059 6.495 21.737 1.242
 28 0.402 0.421 17.035 27.059 6.105 22.071 1.423
 29 0.435 0.463 17.854 27.059 6.161 23.417 1.372
 30 0.379 0.370 17.342 27.059 6.171 21.914 1.431
 31 0.374 0.440 15.869 27.059 6.537 20.941 1.663
 32 0.488 0.519 16.263 27.059 5.816 22.690 1.136
 33 0.492 0.493 15.832 27.059 6.624 23.090 1.230
 34 0.498 0.450 16.721 27.059 5.634 23.098 0.954
 35 0.454 0.470 16.103 27.059 6.007 22.152 1.242
 36 0.483 0.488 16.351 27.059 5.774 22.648 1.102
 37 0.501 0.568 14.915 27.059 6.278 22.099 1.249
 38 0.518 0.484 14.040 27.059 6.589 21.834 1.116
 39 0.534 0.529 15.392 27.059 6.214 22.977 1.022
 40 0.427 0.509 14.038 27.059 5.526 19.499 1.319
 41 0.250 0.360 12.664 27.059 6.286 15.806 1.832
 42 0.191 0.271 13.261 27.059 6.515 14.962 1.849
 43 0.259 0.280 12.540 27.059 5.900 15.625 1.465
 44 0.491 0.485 13.396 27.059 6.062 20.360 1.128
 45 0.622 0.572 12.147 27.059 5.440 20.170 0.644
 46 0.480 0.352 11.231 27.059 5.741 17.885 0.886
 47 0.525 0.399 12.640 27.059 6.032 20.084 0.851
 48 0.536 0.470 13.429 27.941 6.278 21.298 0.965
 49 0.504 0.473 13.421 35.000 6.777 21.813 1.215
 50 0.498 0.546 14.797 35.000 6.384 22.681 1.253
 51 0.424 0.443 15.236 35.000 6.761 22.225 1.472
 52 0.397 0.489 15.170 27.059 6.098 20.447 1.555
 53 0.453 0.508 15.560 27.059 5.366 21.105 1.190
 54 0.497 0.522 14.408 27.059 5.925 21.252 1.123
 55 0.541 0.547 14.579 27.059 6.488 22.577 1.086
 56 0.460 0.408 15.309 27.059 6.602 22.080 1.198
 57 0.489 0.500 15.091 27.059 6.840 22.575 1.313
 58 0.456 0.466 14.758 27.059 6.855 21.755 1.404
 59 0.498 0.387 15.251 27.059 6.534 22.587 0.979
 60 0.540 0.363 14.921 27.059 5.923 22.353 0.685
 61 0.506 0.363 14.307 27.059 6.221 21.565 0.855
 62 0.507 0.391 13.902 27.059 6.056 21.052 0.884
 63 0.457 0.354 14.231 27.059 5.976 20.533 0.977
 64 0.427 0.450 14.610 27.941 7.321 21.628 1.612
 65 0.409 0.399 15.953 27.941 7.409 22.494 1.567
 66 0.405 0.413 17.237 27.941 8.447 24.282 1.859
 67 0.436 0.449 16.621 27.941 8.517 24.480 1.833
 68 0.500 0.383 16.522 27.941 7.428 24.654 1.104
 69 0.413 0.326 15.956 27.941 8.153 23.183 1.473
 70 0.374 0.341 16.910 52.941 9.338 26.014 1.958
 71 0.389 0.338 17.939 52.941 10.921 28.733 2.235
 72 0.441 0.349 15.397 52.941 8.024 24.721 1.409
 73 0.410 0.340 16.105 27.059 6.399 21.704 1.211
 74 0.409 0.257 16.046 27.059 6.578 21.784 0.985
 75 0.416 0.351 15.906 27.941 6.917 22.181 1.303
 76 0.469 0.376 16.885 27.941 6.184 23.343 1.017
 77 0.455 0.305 15.368 27.059 6.383 21.859 0.925
 78 0.497 0.336 15.202 27.059 6.296 22.313 0.833
 79 0.504 0.356 14.533 27.059 5.496 21.074 0.739
 80 0.469 0.283 14.488 27.059 5.751 20.746 0.734
 81 0.649 0.344 14.762 27.059 4.763 22.481 0.255
 82 0.752 0.431 15.108 27.059 5.323 24.636 0.148
 83 0.648 0.374 16.279 27.059 5.697 24.951 0.343
 84 0.520 0.294 17.700 27.059 5.382 24.107 0.565
 85 0.546 0.375 17.156 27.059 5.364 24.006 0.616
 86 0.660 0.387 17.174 27.059 5.956 26.263 0.340
 87 0.720 0.388 16.555 34.118 6.804 28.024 0.246
 88 0.701 0.467 15.852 32.059 7.177 27.244 0.407
 89 0.721 0.354 16.911 34.118 7.179 28.828 0.230
 90 0.700 0.397 15.533 29.118 7.564 27.017 0.370
 91 0.650 0.414 14.433 27.059 7.033 24.468 0.530
 92 0.591 0.416 13.354 27.059 7.337 22.915 0.841
 93 0.583 0.429 12.792 27.059 6.582 21.516 0.783
 94 0.643 0.427 15.020 32.059 8.215 26.655 0.716
 95 0.626 0.381 17.460 34.118 9.207 30.052 0.773
 96 0.600 0.381 17.620 30.882 8.041 28.279 0.736
 97 0.557 0.416 17.907 32.059 8.010 27.927 0.993
 98 0.596 0.491 18.894 35.882 6.985 28.935 0.786
 99 0.634 0.482 18.365 30.882 7.095 28.634 0.632
100 0.678 0.625 17.877 35.000 7.133 29.264 0.618
101 0.601 0.451 17.120 29.118 6.737 26.354 0.690
102 0.550 0.434 16.598 30.882 6.948 25.444 0.910
103 0.569 0.409 15.219 27.059 7.280 24.336 0.859
104 0.660 0.421 16.038 27.059 6.431 25.606 0.422
105 0.621 0.346 16.134 27.059 7.007 25.716 0.498
106 0.586 0.418 14.814 27.059 6.785 23.727 0.736
107 0.641 0.438 14.037 27.941 6.735 23.738 0.568
108 0.541 0.448 13.244 27.941 7.062 21.941 1.073
109 0.571 0.484 12.366 27.059 5.936 20.304 0.808
110 0.585 0.441 13.741 27.059 5.982 21.886 0.674
111 0.538 0.454 13.016 27.059 6.293 20.867 0.942
112 0.591 0.583 13.719 27.059 6.661 22.610 0.971
113 0.689 0.527 12.212 27.059 6.773 22.379 0.545
114 0.650 0.572 12.034 27.059 6.858 21.839 0.787
115 0.610 0.492 13.648 27.059 6.796 22.923 0.785
116 0.621 0.559 12.964 27.059 6.503 22.084 0.798
117 0.611 0.495 13.137 27.059 6.464 22.094 0.743
118 0.515 0.452 13.115 27.059 6.380 20.731 1.047
119 0.549 0.462 13.642 27.059 6.037 21.369 0.849
120 0.585 0.455 12.474 27.059 6.295 20.939 0.775
121 0.515 0.432 12.836 27.059 6.950 21.004 1.142
122 0.574 0.431 12.024 27.059 6.982 21.038 0.928
123 0.586 0.394 13.148 27.941 7.457 22.849 0.846
124 0.580 0.433 13.118 27.059 6.490 21.708 0.776
125 0.612 0.466 12.510 27.059 6.127 21.133 0.661
126 0.533 0.466 12.272 27.059 6.674 20.452 1.092
127 0.546 0.382 12.685 27.059 6.857 21.198 0.892
128 0.593 0.353 13.668 27.059 6.803 22.726 0.620
129 0.548 0.365 13.393 27.059 6.967 22.008 0.845
130 0.487 0.397 13.932 27.059 6.765 21.434 1.108
131 0.551 0.384 13.546 27.059 6.643 21.887 0.813
132 0.557 0.320 13.168 27.059 6.841 21.795 0.696
133 0.505 0.325 12.923 27.059 7.029 21.017 0.935
134 0.462 0.358 13.382 27.059 7.179 20.926 1.212
135 0.382 0.285 14.152 27.059 7.649 20.609 1.364
136 0.488 0.311 14.418 27.059 6.826 21.942 0.894
137 0.527 0.261 13.956 27.059 7.151 22.411 0.677
138 0.560 0.296 14.727 27.059 7.068 23.540 0.632
139 0.528 0.361 15.294 35.882 7.491 24.769 0.961
140 0.524 0.354 16.466 35.882 7.454 25.808 0.933
141 0.500 0.351 15.699 27.059 6.831 23.287 0.935
142 0.548 0.446 15.587 27.059 6.890 23.997 0.946
143 0.557 0.404 15.382 27.059 7.056 24.098 0.858
144 0.631 0.525 15.329 27.941 6.481 24.650 0.658
145 0.635 0.423 14.504 27.059 6.832 24.139 0.572
146 0.593 0.412 14.201 27.059 6.944 23.385 0.735
147 0.631 0.377 13.767 27.059 7.255 23.773 0.584
148 0.567 0.385 14.572 27.059 7.011 23.440 0.791
149 0.571 0.453 15.960 49.118 9.163 28.574 1.283
150 0.532 0.486 17.884 49.118 9.819 30.528 1.678
151 0.537 0.368 17.397 49.118 9.200 29.502 1.190
152 0.415 0.396 17.843 49.118 9.317 27.591 1.948
153 0.438 0.354 17.181 49.118 9.501 27.643 1.730
154 0.461 0.349 16.745 49.118 7.791 26.039 1.251
155 0.495 0.287 16.525 27.059 6.096 23.285 0.699
156 0.442 0.304 16.401 27.059 6.065 22.249 0.932
157 0.490 0.399 15.897 35.000 7.107 24.295 1.137
158 0.499 0.367 15.613 34.118 6.675 23.700 0.952
159 0.553 0.420 14.425 27.059 6.770 22.871 0.877
160 0.565 0.422 15.217 27.059 7.104 24.109 0.872
161 0.646 0.439 15.013 27.059 7.415 25.374 0.616
162 0.609 0.508 15.172 27.059 7.362 24.957 0.870
163 0.569 0.423 16.208 27.059 7.728 25.675 0.939
164 0.577 0.456 15.743 27.059 7.870 25.501 1.006
165 0.584 0.434 14.947 27.059 7.929 24.916 0.962
166 0.503 0.349 14.307 37.941 8.530 24.549 1.272
167 0.551 0.301 14.486 27.059 7.847 23.909 0.785
168 0.594 0.332 15.316 27.059 7.540 25.047 0.637
169 0.578 0.360 16.002 27.059 7.702 25.602 0.767
170 0.547 0.387 17.410 45.882 8.878 29.199 1.133
171 0.575 0.494 17.127 45.882 9.796 30.349 1.450
172 0.653 0.438 22.564 45.882 13.651 41.370 1.224
173 0.638 0.466 21.699 45.882 11.460 37.949 1.106
174 0.502 0.482 15.834 29.118 7.534 24.306 1.356
175 0.644 0.425 18.432 29.118 7.266 28.806 0.536
176 0.663 0.431 19.085 29.118 7.665 30.132 0.505
177 0.613 0.445 18.154 29.118 7.556 28.320 0.724
178 0.661 0.353 17.368 29.118 7.619 28.373 0.419
179 0.670 0.377 17.500 29.118 7.478 28.500 0.411
180 0.575 0.444 16.011 27.941 6.548 24.583 0.769
181 0.531 0.452 15.404 27.059 6.468 23.178 0.957
182 0.633 0.391 16.551 27.059 7.022 26.309 0.522
183 0.635 0.438 17.473 27.059 6.624 26.846 0.529
184 0.633 0.561 17.008 27.059 6.160 25.917 0.627
185 0.668 0.575 13.890 27.059 7.325 24.446 0.720
186 0.653 0.504 14.194 27.059 7.280 24.514 0.680
187 0.630 0.561 15.796 27.059 7.147 25.654 0.797
188 0.670 0.546 16.159 27.059 6.969 26.401 0.578
189 0.526 0.506 17.989 27.059 6.421 25.393 1.048
190 0.600 0.525 17.616 27.059 6.772 26.585 0.797
191 0.599 0.519 17.484 27.059 6.910 26.575 0.815
192 0.623 0.457 17.020 27.059 6.881 26.477 0.631
193 0.554 0.471 17.028 27.059 6.668 25.214 0.907
194 0.565 0.625 16.106 27.059 7.429 25.240 1.258
195 0.647 0.569 15.439 27.059 6.819 25.219 0.689
196 0.680 0.539 15.627 27.059 6.517 25.547 0.490
197 0.681 0.443 17.735 27.059 6.643 27.796 0.384
198 0.638 0.563 17.790 27.059 6.635 27.206 0.662
199 0.642 0.544 16.161 27.059 6.881 25.923 0.678
200 0.637 0.642 16.019 27.059 7.129 25.955 0.855
201 0.569 0.643 17.982 27.059 6.672 26.333 1.075
202 0.559 0.511 18.056 27.059 6.348 25.941 0.892
203 0.540 0.444 17.593 27.059 6.702 25.528 0.924
204 0.486 0.475 16.684 34.118 7.113 24.899 1.315
205 0.536 0.480 16.713 27.059 6.998 24.936 1.063
206 0.556 0.508 17.012 30.000 6.858 25.756 0.990
207 0.541 0.541 16.840 27.059 6.892 25.036 1.121
208 0.621 0.516 18.194 27.059 5.654 26.396 0.563
209 0.648 0.586 17.299 27.941 5.902 26.270 0.562
210 0.699 0.553 17.049 27.059 6.024 26.742 0.378
211 0.496 0.667 17.767 27.059 6.354 24.620 1.427
212 0.562 0.605 17.232 27.059 6.560 25.430 1.047
213 0.586 0.581 17.259 27.059 6.490 25.769 0.892
214 0.576 0.596 17.227 27.059 6.593 25.678 0.975
215 0.591 0.651 17.090 27.059 6.020 25.242 0.875
216 0.601 0.687 18.190 27.059 6.253 26.653 0.897
217 0.573 0.653 19.330 27.059 5.869 26.896 0.934
218 0.630 0.696 19.383 27.059 5.391 27.418 0.660
219 0.638 0.696 18.648 27.059 6.166 27.579 0.723
220 0.654 0.636 18.502 27.059 6.141 27.657 0.603
221 0.653 0.700 19.165 27.059 5.408 27.574 0.575
222 0.661 0.662 19.649 27.059 5.175 27.938 0.498
223 0.677 0.716 18.379 27.059 5.963 27.703 0.556
224 0.665 0.581 18.570 27.059 5.930 27.682 0.494
225 0.676 0.853 18.508 27.059 6.347 28.192 0.699
226 0.614 0.669 18.798 27.059 6.355 27.523 0.831
227 0.667 0.628 19.068 27.059 5.819 28.089 0.512
228 0.699 0.725 18.286 27.059 6.096 28.059 0.493
229 0.612 0.575 19.426 27.059 6.013 27.758 0.697
230 0.672 0.679 19.053 27.059 6.021 28.346 0.552
231 0.623 0.613 19.993 27.059 5.995 28.448 0.687
232 0.656 0.577 19.155 27.059 6.527 28.687 0.581
233 0.620 0.696 18.019 27.059 6.772 27.277 0.901
234 0.677 0.560 18.439 27.941 6.802 28.710 0.519
235 0.603 0.543 17.836 27.059 7.265 27.298 0.880
236 0.626 0.858 17.466 30.000 7.346 27.771 1.149
237 0.600 0.637 17.867 27.059 6.837 26.881 0.946
238 0.672 0.531 16.284 27.059 7.584 27.162 0.625
239 0.590 0.498 16.435 27.059 7.648 26.142 0.961
240 0.564 0.419 17.623 27.059 7.363 26.553 0.872
241 0.568 0.500 16.920 27.059 7.792 26.370 1.089
242 0.603 0.460 17.768 27.059 7.015 27.002 0.725
243 0.556 0.472 18.515 27.941 6.755 26.800 0.904
244 0.583 0.425 17.678 30.000 7.618 27.545 0.835
245 0.545 0.487 18.480 27.059 7.439 27.059 1.091
246 0.544 0.427 17.819 27.059 7.721 26.706 1.033
247 0.501 0.481 19.361 27.059 6.994 26.626 1.223
248 0.565 0.493 18.473 27.059 7.189 27.179 0.963
249 0.603 0.557 18.118 27.059 7.080 27.389 0.866
250 0.604 0.561 17.472 27.059 7.193 26.908 0.894
251 0.552 0.610 17.188 27.059 7.614 26.184 1.321
252 0.574 0.540 18.313 27.059 7.410 27.388 1.033
253 0.569 0.572 19.139 27.059 6.723 27.427 0.985
254 0.596 0.617 18.352 27.059 6.940 27.362 0.953
255 0.616 0.525 18.686 27.059 6.774 27.842 0.719
256 0.615 0.491 18.231 27.059 7.080 27.687 0.723
257 0.535 0.362 18.262 27.059 7.972 27.154 0.960
258 0.627 0.421 19.272 34.118 7.858 30.528 0.648
259 0.629 0.414 21.883 34.118 7.456 32.728 0.571
260 0.595 0.461 20.631 34.118 8.148 31.562 0.882
261 0.655 0.407 20.244 27.059 6.545 29.721 0.406
262 0.630 0.395 19.388 27.059 7.181 29.104 0.529
263 0.732 0.391 19.314 27.059 6.716 30.180 0.203
264 0.620 0.426 19.098 27.059 7.291 28.771 0.624
265 0.596 0.269 18.004 27.059 8.647 28.604 0.559
266 0.484 0.281 19.815 32.059 8.588 28.767 1.023
267 0.568 0.302 21.498 32.059 8.436 31.837 0.693
268 0.615 0.261 23.445 32.059 6.614 32.869 0.326
269 0.501 0.249 23.991 32.059 6.638 31.040 0.670
270 0.393 0.191 25.565 32.059 5.943 29.132 0.918
271 0.330 0.287 22.549 32.059 8.233 26.850 1.870
272 0.303 0.180 20.761 27.059 7.430 17.424 1.282
273 0.343 0.284 18.461 27.059 7.603 23.037 1.562
274 0.366 0.383 18.035 27.059 7.168 22.935 1.719
275 0.379 0.335 17.657 27.059 6.537 22.445 1.390
276 0.382 0.333 16.955 27.059 7.216 22.490 1.462
277 0.373 0.359 18.459 75.000 13.982 32.473 3.322
278 0.319 0.357 18.775 75.000 14.977 32.012 3.844
279 0.257 0.388 22.154 75.000 16.669 33.892 4.612
280 0.313 0.409 19.272 75.000 14.934 32.209 4.162
281 0.319 0.386 20.900 75.000 13.026 32.164 3.346
282 0.257 0.277 18.175 27.059 6.135 19.648 1.847
283 0.281 0.297 15.269 27.059 6.981 18.847 1.723
284 0.241 0.264 15.242 27.059 7.516 18.204 1.838
285 0.214 0.190 16.407 27.059 6.655 17.657 1.559
286 0.147 0.196 16.977 27.059 7.104 16.028 2.103
287 0.227 0.257 14.241 27.059 7.919 17.444 1.861
288 0.219 0.222 15.081 34.118 8.868 19.096 1.869
289 0.225 0.267 14.320 34.118 9.508 19.188 2.172
290 0.338 0.290 18.460 34.118 8.283 24.328 1.716
291 0.440 0.392 18.855 34.118 7.872 26.640 1.487
292 0.436 0.362 18.652 34.118 8.440 26.870 1.521
293 0.417 0.371 19.738 34.118 8.236 27.194 1.618
294 0.430 0.502 17.326 34.118 8.451 25.611 1.981
295 0.370 0.565 16.369 27.941 8.111 22.593 2.374
296 0.343 0.378 15.939 27.059 7.091 20.794 1.755
297 0.382 0.523 16.022 37.059 8.461 23.748 2.310
298 0.412 0.434 16.584 37.059 9.268 25.565 2.113
299 0.431 0.412 16.227 37.059 8.926 25.340 1.860
300 0.531 0.379 16.142 37.059 7.946 26.175 1.052
301 0.474 0.457 15.284 37.059 8.439 24.841 1.678
302 0.358 0.453 15.783 37.059 7.269 22.026 1.930
303 0.434 0.507 14.156 27.059 6.705 20.738 1.560
304 0.507 0.361 12.845 27.059 6.540 20.517 0.927
305 0.475 0.432 14.046 27.059 6.085 20.740 1.092
306 0.364 0.391 13.344 27.059 6.239 18.477 1.478
307 0.393 0.397 12.896 27.059 6.413 18.736 1.418
308 0.494 0.520 13.404 27.059 6.235 20.570 1.216
309 0.540 0.497 14.078 27.059 5.800 21.438 0.889
310 0.526 0.472 13.305 27.059 5.897 20.604 0.935
311 0.527 0.477 13.029 27.059 6.097 20.545 0.985
312 0.469 0.352 13.949 27.059 6.377 20.824 0.999
313 0.549 0.290 14.807 27.059 6.335 22.763 0.566
314 0.534 0.498 13.485 27.059 6.310 21.277 1.025
315 0.542 0.541 13.854 27.059 6.296 21.724 1.047
316 0.531 0.433 15.811 27.059 6.198 23.304 0.875
317 0.643 0.395 15.967 27.059 5.585 24.461 0.371
318 0.626 0.476 15.637 27.059 5.631 23.952 0.513
319 0.609 0.525 15.269 27.059 6.397 24.113 0.734
320 0.603 0.472 15.726 30.882 6.816 25.274 0.743
321 0.583 0.513 15.070 29.118 6.936 24.289 0.923
322 0.599 0.404 15.559 27.059 6.839 24.681 0.658
323 0.588 0.490 15.003 27.059 6.644 23.802 0.817
324 0.556 0.536 16.103 27.059 6.537 24.271 0.987
325 0.611 0.423 15.567 27.059 6.535 24.566 0.605
326 0.597 0.416 15.173 27.059 6.687 24.135 0.672
327 0.561 0.413 14.323 27.059 6.752 22.871 0.831
328 0.574 0.431 13.648 27.059 6.824 22.472 0.841
329 0.588 0.434 14.752 27.059 6.506 23.426 0.714
330 0.593 0.514 13.401 27.059 6.478 22.144 0.839
331 0.609 0.427 14.973 27.059 6.495 23.921 0.621
332 0.589 0.512 14.156 27.059 6.889 23.233 0.910
333 0.534 0.497 13.213 27.059 7.298 21.954 1.262
334 0.500 0.479 13.640 27.059 6.836 21.428 1.252
335 0.526 0.490 14.187 27.059 6.877 22.356 1.152
336 0.586 0.406 13.875 27.059 7.083 23.107 0.783
337 0.609 0.443 13.613 27.059 7.198 23.273 0.781
338 0.594 0.409 14.147 27.059 7.041 23.441 0.742
339 0.616 0.441 14.040 27.059 6.963 23.556 0.700
340 0.593 0.377 14.608 27.059 6.996 23.830 0.673
341 0.581 0.446 15.655 27.059 6.748 24.423 0.782
342 0.532 0.376 17.713 27.059 6.484 25.305 0.800
343 0.549 0.438 17.958 27.059 6.772 26.070 0.882
344 0.529 0.416 17.710 27.059 6.344 25.128 0.868
345 0.514 0.367 17.994 27.059 5.989 24.810 0.793
346 0.578 0.506 16.493 27.059 6.357 24.802 0.814
347 0.552 0.419 15.499 27.059 6.461 23.576 0.812
348 0.582 0.464 14.749 27.059 5.918 22.770 0.694
349 0.511 0.419 14.475 27.059 6.138 21.716 0.930
350 0.471 0.373 13.139 27.059 5.980 19.761 0.976
351 0.477 0.314 13.793 27.059 5.294 19.818 0.718
352 0.483 0.454 13.715 27.059 4.829 19.401 0.873
353 0.436 0.387 14.307 27.059 5.369 19.737 1.028
354 0.475 0.329 14.565 27.059 5.574 20.747 0.795
355 0.464 0.321 15.049 27.059 5.433 20.886 0.801
356 0.506 0.256 14.863 27.059 5.154 21.092 0.498
357 0.466 0.318 14.465 27.059 6.587 21.425 0.955
358 0.393 0.268 15.029 27.059 7.010 21.008 1.142
359 0.452 0.311 15.031 27.059 7.398 22.392 1.124
