NCOLS 30 
NROWS 30 
XLLCORNER 385035.3 
YLLCORNER 5817835 
CELLSIZE 100 
NODATA_value -9999 
1.582897436790400 1.22183094880558 1.26053866976562 1.041694043069 1.20256670835594 1.98843915878783 1.74726231409976 1.91614561888104 1.52017152226295 1.35331196985834 1.77029825027875 2.69772751859783 1.51937188837523 1.38088213131858 0.705113250951708 1.97316693615624 1.8711342435851 1.58979456254429 1.1584854448703 0.672489905628592 1.54962818979389 2.10167494624349 1.4993434746989 1.7884282373527 0.850730633320945 0.746544755025416 1.36881917248557 1.12233299626289 0.976190057904651 0.807870177468579
1.62308749224089 1.31336269130705 2.11323191836125 1.28841969212341 2.038892116914 1.98212889496287 1.32079754078454 1.69722381614927 0.164716970412771 1.79545686744567 1.61883517153029 1.3224896083464 0.171487546522174 0.653814069943915 2.61842830431195 1.69321431041744 0.626447126841116 1.36087418528794 1.23794112297865 0.902222759457253 2.16534171177595 1.21201611116973 1.22040977151748 1.76492641842719 2.39451908725614 1.68766734306357 0.910984492737712 1.25936460145446 1.24438348892482 2.15751057047971
0.331663830673114 0.467025877425722 0.793089794994474 1.98006265042762 0.980529415728364 1.67516134530915 1.15375819336062 1.51250745273832 0.675360416983218 1.73436935001035 1.11076753830801 0.94591288606472 0.843311230524149 1.38297466016502 1.26331027834454 1.30671421624742 0.865603910738922 1.44390188429749 1.18791178225829 0.871512330511945 1.1899803520386 0.639272433194799 1.57322621806306 1.8793478405465 2.16989550606721 1.08440859086693 0.718412583256793 1.09183732633929 2.29972506651999 0.880409755923855
0.917854244691756 1.03668581329733 1.14543518681098 1.27659975675125 0.514981246335764 0.79824680336527 2.00984308971317 1.40725606019507 2.13362531732493 1.2172181932089 0.103788856561359 1.23865439234239 1.91387884314954 1.29161602566779 1.4033397186833 1.95203051152225 1.70575788713177 1.55195879004907 1.0415695993651 1.21572234497646 0.858133412332141 1.38372578757428 1.0157030909815 1.64030539076435 0.712712360400734 0.443999380021161 0.440555709924426 4.12234530769785 2.2878693124327 0.879653464523689
1.00034877897316 0.622781015125779 6.25016552596338 1.35648336803627 0.554156231804417 0.658713493817158 1.15421236869825 1.51063538981667 0.665576624999805 1.86428700477425 0.35954850902736 1.15671191091112 1.48138168735691 1.79035025746125 0.828184502100203 1.7343715862152 1.29922037116639 1.25484330996818 1.03507014802718 2.08081451361434 0.819374041131463 0.937039815363619 2.10988825711235 1.98423910403009 2.17747493016876 1.60228021295355 1.51760847960415 1.69090320459004 0.647740923208579 1.90094276670171
0.550427324606872 0.0687186066047813 0.0910223511814009 0.428587697576521 0.907657678555589 0.814759120041417 2.2711010235289 0.949534504953122 1.94425800533448 0.829320950327694 1.24610566824828 1.09889200892877 1.75904387699931 0.566132206801303 0.521811889845099 0.769017461765098 0.272909725863337 1.58501965085557 2.09200518815397 1.03061168337076 1.32439319086105 1.55861476050086 1.73928538361442 1.00291932251335 3.39185876755838 1.44805142015551 1.52462557442182 1.93171752441065 1.86626431522377 1.20687753995024
1.05783434895483 0.928866345454551 1.982864594186 1.0410978290828 1.32938816632377 1.81296844512206 1.47861637193528 3.10684735651851 1.97745722324088 2.36375468327402 1.84452883991069 0.106546090474887 0.57684882327491 0.305009315405094 0.776811035682979 0.384473781408407 1.26165730684884 1.66063973517196 1.613833552197 1.55613739227275 1.66168158191406 1.24343951206489 0.37826257004766 1.42802295127063 3.05097405307474 1.61279685223459 1.35074556384433 1.26281080776534 0.900192006757297 1.83129104110356
1.25442674672284 2.15005405479405 0.928187358166078 0.957471342880286 1.6540799032138 1.45689509842089 1.66783933888606 1.55598062465214 1.62271273204734 1.92724743756138 1.63208067438877 0.552888707166165 0.0399135379627394 2.25031966861138 0.63509824259938 0.581729500953699 0.967407059147478 1.90273055609769 1.18278420886233 1.51569159765468 1.54409995717917 1.59211365643447 0.778906666345533 0.943662697229709 1.18770861444192 5.87629938311626 3.34898281304158 2.92025827195252 3.2213564095973 0.765981633271038
0.745852276999143 1.4221275530824 1.28723383665153 1.50669346046438 1.08261119123828 1.67082814118071 0.969727613528183 1.57899829239035 2.16925455247084 1.15419620254046 1.13934405960538 1.67229492408556 1.68534537331979 1.37705168847258 0.632684122721181 0.0667310305563013 0.113395325935925 0.00885913879363564 2.0694825506703 1.53037106517199 1.77642058913465 1.75491194694986 2.17637380517805 0.983734270818653 0.870289410688542 2.3194657270231 1.41243556640876 0.161775398484524 1.14579632234495 1.72297198612862
1.38084765422836 0.764504823541321 1.0487409290414 0.646262427887849 0.600767487591246 2.11327279824097 1.84235198735141 2.39552719117696 1.59321412060169 1.55833046340025 1.64045184251439 1.73194022031535 1.95425803805078 0.634345561132876 0.847688588623989 0.625445517242598 0.583451898226026 0.596757617972694 2.16192047757289 1.62178110142695 1.61768185988729 1.44610228753832 1.48780092478403 1.06747680294083 1.78096981975248 1.11131114853329 2.43902188791749 1.32925137955023 1.6540615665501 0.965218674078096
1.00741911194599 1.22358152949168 1.63749377841654 1.13149500133048 1.70923209230888 1.81465754567276 1.42090786823436 2.11754984865143 1.63374765051739 0.6707328447539 1.54209755861815 0.663504866994865 1.41395630062699 1.64167474340613 1.65317091276651 2.62257181482564 3.21657090280581 2.18871423653963 1.3100198765713 1.42462949851958 2.81276325433988 1.75982887698474 0.998285608684889 1.62433259053859 2.24607308829313 2.7369491508668 0.904708776356565 1.97237325361491 1.49101565555539 2.04901039269942
2.0349883123188 0.484371905551217 1.33469164957509 1.7449853508621 2.07089447728874 1.6261190044469 1.59472449759092 2.56247913476598 1.66699910316323 1.27177674460215 1.61007737048117 1.50373548187818 0.968475157047798 1.5418441383854 1.21514100340389 0.886114869053486 1.37023595948255 1.34477619433099 0.369721744243462 1.80475698924987 1.06112192349125 0.823812623741435 1.53286784331626 2.14361892453214 1.30248202806495 1.53235946655386 1.53299536381048 1.23386120190397 2.0662543528388 1.30014627649712
2.12553466649731 1.24587429409104 0.779700386368152 1.35190228751346 1.32884792225458 1.15549657967343 1.95207110076092 1.60383164501334 1.89887482497664 2.83009825884808 4.43991334833825 0.472775694061647 0.656774305826215 1.27479116916427 0.913131604150114 1.44050145635371 1.89503797957319 1.37582678440865 1.2579644706359 1.80609541427366 1.00089911400066 1.36049642332014 3.73834520274423 1.23123501561194 1.64268476451889 1.47774380175961 0.356466649744985 0.94074115227728 1.29826022651265 0.000538060560273194
1.5924170274403 0.918572689326235 0.887949272173652 2.43927750507763 1.44951566014693 2.12507219250689 0.932978836344779 2.1076808031255 2.30654990643389 3.2418982649956 3.107481910447 1.61440359879448 0.673777837910552 0.418131158712565 0.61324093661805 1.7400246136926 1.84171037477325 1.29556746545856 0.199491496547852 2.94183313623477 0.975831592571565 0.93291075983874 0.878867829804996 0.602209150811529 0.729562758208541 1.61577513670862 1.69459917682045 2.32154590579617 1.47138126622434 0.175995352834487
1.27937408758208 0.217091120236476 0.685853087233293 3.10679829038916 2.1139755208115 1.55367767866599 1.81619789540724 1.34706933451255 1.88426747652728 7.84566604006207 0.171316351762204 0.996934902169328 0.700156249607024 0.98486522997202 1.97165444783853 1.9255453863297 1.51973050559383 1.88853951774671 0.840411993007625 1.39100702573748 1.53128430165206 1.62690108892867 0.990528944479053 0.474342231849839 1.33348597276271 0.973425545279658 1.18582198964131 1.69427511543678 1.46676113214479 0.954169849616327
1.28450864581437 2.2016525955546 1.77350074073716 2.67612983249115 2.09516792931146 1.13119549078833 2.10173661032543 1.36641526919269 0.595028563251884 0.776749440292158 1.89015304309343 0.948521757286457 1.44807917234484 1.42471666682385 0.388741750882818 0.803322476061949 0.839415357586783 1.94648534524671 1.31247770827657 0.437151768297725 1.03439046502118 2.80612001374659 2.17090094461142 1.69219767703041 3.38248042219677 1.33493309378907 0.884480429144285 0.960394948739375 1.22941800379798 1.39291202650268
1.38782002140031 2.2437833267227 1.58430449225109 1.60559420277505 1.53387982486201 1.72481367044565 1.08602175806478 1.67255618028853 0.569138758262082 0.411148149557058 1.87277208773954 2.00183878187738 0.450608405643771 0.370870594787967 1.64428879511995 0.506651974645413 0.650358915561338 1.1332186036202 0.701956723748852 0.360643276276218 1.72622929158857 0.5542530798236 1.68453686257614 1.28402521402384 2.99492798789334 1.45818269261986 1.07542402122413 1.11700148964903 0.869414147400916 0.64905792490437
0.975140142860264 1.82535195686738 0.976658535406161 1.20030311171527 0.504482015489387 1.6770900520699 1.15478841914567 1.35604123226475 1.84965505614195 0.740862732742456 0.827128015150174 1.0932059652049 1.38757471596394 0.469621511623861 0.856512018362253 0.817036984070365 1.60745531391434 0.00216937270644721 0 1.051234785318 0.855971184568873 1.33211825502582 2.19755257966482 1.51566852319597 0.985404029559966 1.51274006673731 1.31589112722793 0.914811729318441 1.91093654925437 1.30350605777023
0.934541767106503 0.855126728011984 1.45268168563324 1.07496132193088 1.35656590393168 1.37118633082398 1.14974174264858 1.05055377553199 2.18358876774355 2.42183387265018 1.14579305096955 1.01060563056302 0.899794541372991 0.703074915889272 0.363976776985207 0.748655453432189 1.86680230031005 1.91651179560017 0.350738723834374 0.760120996043289 0.80876151667058 1.90142273795272 1.93791500570872 1.95264702441095 0.963672955619106 1.5175981398166 1.49905692545966 1.04946269121663 1.34916365721901 1.65263725523257
0.201366803414887 0.815176092455229 1.48620057618487 1.43254555183308 1.34911367230697 1.51330166657805 1.07150478351946 1.24942801179875 1.40277586997148 0.982551527902292 1.36823032829297 0.751370583556232 1.46247120021106 2.07424813129891 2.19353796586209 2.62460874677175 1.15762093066514 1.12245344205562 0.250484335263261 1.21092577602669 1.61366040049564 1.69046106646412 1.69992439001609 1.60501369074296 1.7555547332107 2.00830597579062 1.92534131625978 1.45144636905143 1.17842317459686 0.831667009444662
0.648636358265261 1.61671687390387 1.06961518127451 1.15069616259031 1.31648705289446 0.828632449721897 1.3735644475299 2.43070430180214 1.68511986253153 1.23716771731289 1.49574422885979 1.70386525041149 1.38221480014603 0.697169181307676 2.39950633434916 2.14198429965056 1.99328658359275 0.096799508253413 0.101518139841606 1.67876691611073 2.28039258379923 1.0897526356093 1.98828827622333 1.26118070190079 1.74675139433469 0.772740294758313 0.139143345233867 1.7457687421443 1.35204515519304 1.73436068568525
0.329775114190522 0.97196804245882 1.77124355333971 0.897320492451884 0.867238565270646 0.614351018418382 0.385006157734698 2.42190561778854 1.86945081123543 1.16690764023909 1.74246760537853 1.44683313385273 0.159121250682747 0.999797133045055 2.4054435103448 1.18300032963813 1.32766359157185 0.133024592083741 4.53224629408671 1.65546831894593 1.98310760199657 1.0963748093167 1.94025091489685 1.47544441559517 1.11415395718576 1.21626667867642 0.837428386005173 0.603758455836985 2.64195225212514 1.97249906484686
1.4636196811241 1.75046832094322 1.25805882252043 0.655994819237346 1.77798052706913 1.31722162391845 1.63145807499395 1.50422665681005 1.01117291700625 1.70881204006739 2.457045169846 2.14850763865444 1.11520483583419 0.835981440693682 1.75819230898047 1.00653208076399 0.639217165643664 0.103916367245605 0.459926151355244 1.14690587534983 1.25215624186665 1.96510864567129 1.2194642937534 0.539271526351473 1.12294888446218 0.655673636967821 1.10536098087272 1.5604083656376 4.12589303108009 2.55378660272042
1.48309231975481 1.44514115260107 1.39017630741339 1.03797788237125 0.897041312398452 1.64337185491893 1.80488899328158 1.32373152372513 1.7193293870317 1.88093262616786 1.8457800322078 2.19466563600413 0.506072156069099 0.646884615972058 0.858582557257683 1.84682468772542 0.682463110982503 0.74655790249676 1.93648549109925 3.04592480584819 1.28463734475896 0.430257549443157 0.674076053927798 3.67338153397582 0.889087632625333 2.77975855861455 3.56392608230595 1.47589971409155 1.99639866436206 1.42887939633027
1.32687324634071 1.25691006597879 1.52944586994616 1.06325044618428 1.79170297223541 1.29694364042799 1.24599351545062 1.01141802182293 0.685670742331868 1.61647854391803 1.91396546642049 0.48565356831055 1.18047486971315 0.586187250155615 0.561726730110078 1.25226485223339 2.89130879632265 2.20867747134765 0.484058088931717 1.11440356823469 0.830711054536466 1.17696881774506 0.167486821113496 0.630721970341302 2.37523800423197 2.27022094560335 2.1573563638512 2.39506020201279 2.29943219430303 1.64291005859793
1.16222196282672 1.46219952996913 1.0754892688769 0.422356440205152 1.35900324169782 0.524082836219836 1.33287389768206 1.85433430155376 1.34831788228182 1.7031441946508 1.05978278860486 1.03009506285426 2.42682664756746 1.18827376521532 1.06234942747123 1.25538345047637 2.49627907296788 0.562342367221317 0.671547715183474 0.688882640931558 0.928820211696127 1.06490005419769 0.471868859728638 0.951929749292049 1.92161308488101 1.52841301429301 1.09301585260744 2.83241110082034 3.15251230278194 0.483674627367803
2.38814988683541 1.1391792731138 1.83838897732025 0.930724158403364 1.76565327141912 1.61536747337539 0.709542764325893 2.27031751975198 2.39153847845944 1.0973862419832 0.632973210844191 0.940309696927264 1.28646188039796 0.61909457897259 1.14243001094508 0.147469905608232 1.09807014761765 0.433591845454473 2.1237657641591 1.24208666886082 1.13656700948253 0.602130721772922 0.389335602194939 2.16290124077711 0.547668310925924 1.8710376881599 1.43702724689358 1.43145829152963 2.38315597751491 6.0264452589931
1.2506035575177 1.22795736315509 1.2649670638815 1.83056022236342 1.70440948071127 1.63705365438193 1.83940021647509 1.81810715447108 1.44064972370718 1.16610062200596 0.537174451196842 1.56161369945101 0.500802975900515 0.575289968609086 1.56738895335393 0.737719999249812 0.424322890477228 1.55918675306756 1.3935545257613 1.05848963415438 1.77175462026298 0.440642247695592 0.832095139461757 0.11871826387167 2.76815962864437 3.74370508722227 1.53413422039506 1.13986195694144 0.95952032348422 1.58546481270666
0.413961771276645 2.16035840796298 1.51549906947814 2.4085280259442 1.77465462301429 2.32994801588181 1.95302387672182 1.99887122459753 2.16169431762751 2.22309702223512 1.26479448996696 0.529413549662122 0.533106732500321 1.37364709517547 1.69665661843135 1.7501284254181 1.73871180816892 2.50294255918201 1.42834403277602 1.22407551192137 1.96855809478055 1.04790038752249 1.0315867331432 1.94568259387124 1.73289327461644 2.39027665871745 1.74659270356687 11.9429155058191 1.57056410654914 1.14799285860297
0.632893092069557 1.71151386161538 0.573994173928943 1.13208513454712 2.91989736002346 1.9345664182843 1.65837454041785 2.0425958242484 1.85408237295875 0.950476492153044 1.03286843980434 2.01157978846305 1.1298425165024 1.25682302308316 1.67912475896118 1.60124566845449 1.40068998034137 2.0049392277049 1.90459730017706 1.50911104844936 1.63768333184929 1.46488027389352 2.16859808872452 1.88637592597042 1.7113696296081 1.18768774085458 3.3663361353867 0.598508881044464 1.38945083380969 1.44320642676514
